^D:\PROGRAMMING\VISUAL STUDIO PROJECTS\SOCKETS-ORIGINAL_WIN_PROGRAMMING\TEST\TEST.RC
/D _VC80_UPGRADE=0x0710 /l"0x0409" /nologo /fo"Debug\test.res" test.rc /D _VC80_UPGRADE=0x0710 /l"0x0409" /nologo /fo"Debug\test.res" D:\PROGRAMMING\VISUAL STUDIO PROJECTS\SOCKETS-ORIGINAL_WIN_PROGRAMMING\TEST\TEST.RC
^D:\PROGRAMMING\VISUAL STUDIO PROJECTS\SOCKETS-ORIGINAL_WIN_PROGRAMMING\TEST\DEBUG\TEST_MANIFEST.RC
/nologo /fo"Debug\test.exe.embed.manifest.res" Debug\test_manifest.rc /nologo /fo"Debug\test.exe.embed.manifest.res" D:\PROGRAMMING\VISUAL STUDIO PROJECTS\SOCKETS-ORIGINAL_WIN_PROGRAMMING\TEST\DEBUG\TEST_MANIFEST.RC
