^D:\PROGRAMMING\VISUAL STUDIO PROJECTS\SOCKETS-ORIGINAL_WIN_PROGRAMMING\TEST\TEST.RC
D:\PROGRAMMING\VISUAL STUDIO PROJECTS\SOCKETS-ORIGINAL_WIN_PROGRAMMING\TEST\RESOURCE.H
C:\PROGRAM FILES (X86)\MICROSOFT SDKS\WINDOWS\V7.0A\INCLUDE\WINDOWS.H
C:\PROGRAM FILES (X86)\MICROSOFT SDKS\WINDOWS\V7.0A\INCLUDE\SDKDDKVER.H
C:\PROGRAM FILES (X86)\MICROSOFT SDKS\WINDOWS\V7.0A\INCLUDE\WINRESRC.H
C:\PROGRAM FILES (X86)\MICROSOFT SDKS\WINDOWS\V7.0A\INCLUDE\WINUSER.RH
C:\PROGRAM FILES (X86)\MICROSOFT SDKS\WINDOWS\V7.0A\INCLUDE\COMMCTRL.RH
C:\PROGRAM FILES (X86)\MICROSOFT SDKS\WINDOWS\V7.0A\INCLUDE\DDE.RH
C:\PROGRAM FILES (X86)\MICROSOFT SDKS\WINDOWS\V7.0A\INCLUDE\WINNT.RH
C:\PROGRAM FILES (X86)\MICROSOFT SDKS\WINDOWS\V7.0A\INCLUDE\DLGS.H
C:\PROGRAM FILES (X86)\MICROSOFT SDKS\WINDOWS\V7.0A\INCLUDE\WINVER.H
C:\PROGRAM FILES (X86)\MICROSOFT SDKS\WINDOWS\V7.0A\INCLUDE\SPECSTRINGS.H
C:\PROGRAM FILES (X86)\MICROSOFT SDKS\WINDOWS\V7.0A\INCLUDE\SAL_SUPP.H
C:\PROGRAM FILES (X86)\MICROSOFT SDKS\WINDOWS\V7.0A\INCLUDE\SPECSTRINGS_SUPP.H
D:\APPS(X86)\MICROSOFT VISUAL STUDIO 10.0\VC\INCLUDE\SAL.H
C:\PROGRAM FILES (X86)\MICROSOFT SDKS\WINDOWS\V7.0A\INCLUDE\DRIVERSPECS.H
C:\PROGRAM FILES (X86)\MICROSOFT SDKS\WINDOWS\V7.0A\INCLUDE\SDV_DRIVERSPECS.H
C:\PROGRAM FILES (X86)\MICROSOFT SDKS\WINDOWS\V7.0A\INCLUDE\VERRSRC.H
D:\PROGRAMMING\VISUAL STUDIO PROJECTS\SOCKETS-ORIGINAL_WIN_PROGRAMMING\TEST\TEST.EXE.MANIFEST
D:\PROGRAMMING\VISUAL STUDIO PROJECTS\SOCKETS-ORIGINAL_WIN_PROGRAMMING\TEST\TEST.ICO
D:\PROGRAMMING\VISUAL STUDIO PROJECTS\SOCKETS-ORIGINAL_WIN_PROGRAMMING\TEST\SMALL.ICO
^D:\PROGRAMMING\VISUAL STUDIO PROJECTS\SOCKETS-ORIGINAL_WIN_PROGRAMMING\TEST\DEBUG\TEST_MANIFEST.RC
D:\PROGRAMMING\VISUAL STUDIO PROJECTS\SOCKETS-ORIGINAL_WIN_PROGRAMMING\TEST\DEBUG\TEST.EXE.EMBED.MANIFEST
